String,Kurzname_DE,Shortname,Corrvalue,Relzahl,Varanzahl,Position,Argument,Content,EndofLine
Lese %s ein und kodiere diese mit %s,Dateileser,OP01,0,6,2,"OP01,1",Argpart,"read.csv(""",0
Ergänze Ergebnis zu Variable %s,Variablenzuweisung,OP02,-1,3,1,"OP01,2","Argument,1",,0
Wiederhole String %s so oft wie Vektor %s lang ist,Stringwiederholung,OP03,0,5,2,"OP01,3",Argpart,""", ",0
Setze Pfad %s als Arbeitsverzeichnis,Verzeichnissetzer,OP04,0,3,1,"OP01,4",Argpart,"encoding=""",0
Extrahiere Spalte %s aus Dataframe %s,Extraktion,OP05,0,3,2,"OP01,5","Argument,2",,0
Füge Variable %s mit Variable %s zusammen,Verkettung,OP06,0,5,2,"OP01,6",Argpart,""")",1
Ergänze Ergebnis in Spalte %s in Dataframe %s,Spaltenzuweisung,OP07,-1,5,2,"OP02,1","Argument,1",,0
Bilde einen Dataframe mit Vektor %s,Dataframebilder,OP08,0,3,1,"OP02,2",Argpart, <,0
Verkette Inhalt von Spalte %s im Dataframe %s zu einem String mit %s als Trennzeichen,Stringkettenbilder,OP09,0,7,3,"OP02,3",Argpart,- ,0
Füge Vektor %s als Spalte %s dem Dataframe %s hinzu,Spaltenzusatz2,OP10,0,6,3,"OP05,1","Argument,2",,0
Extrahiere einen String aus Spalte %s im Dataframe %s vom %s ten Zeichen bis zum %s ten Zeichen,Substring,OP11,0,9,4,"OP05,2",Argpart,$,0
Bilde die kumulierte Summe von Spalte %s im Dataframe %s,Kumsum,OP12,0,5,2,"OP05,3","Argument,1",,1
Ermittle die Länge je String von Spalte %s im Dataframe %s,Längenermittler,OP13,0,5,2,"OP06,1",Argpart,c(,0
Liste Dateinamen auf,Dateinamenauflister,OP14,0,1,0,"OP06,2","Argument,1",,0
Gebe String %s aus,Stringausgabe,OP15,0,3,1,"OP06,3",Argpart,",",0
Liste Spaltennamen von Dataframe %s auf,Spaltennamenliste,OP16,0,3,1,"OP06,4","Argument,2",,0
Schreibe Inhalt %s,Inhaltausgabe,OP17,0,1,1,"OP06,5",Argpart,),1
Alternativwert für Fehler in Dataframe %s in Spalte %s ist Wert %s,Fehlerersatz,OP18,0,10,3,"OP07,1","Argument,2",,0
Wenn Spalte %s im Dataframe %s %s %s dann %s sonst %s,Wennfunktion,OP19,0,13,6,"OP07,2",Argpart,$,0
Zeilen von Dataframe %s in denen %s %s %s,Subsetfunc,OP20,0,9,4,"OP07,3","Argument,1",,0
Verbinde %s mit %s anhand von %s und %s,Mergefunc,OP21,0,9,4,"OP07,4",Argpart, <,0
Spalten %s von Dataframe %s,Filterfunc,OP22,0,5,2,"OP07,5",Argpart,- ,0
Zeilennummer %s bis %s von Vektor %s,Vectorsubset,OP23,0,6,3,"OP04,1",Argpart,setwd(,0
Zeilennummer %s bis %s und Spaltennummer %s bis %s von Dataframe %s,Dataframesubset,OP24,0,10,5,"OP04,2","Argument,1",,0
Dataframe %s sortiert nach Spalte %s im Dataframe %s,Sortfunc,OP25,0,6,3,"OP04,3",Argpart,),1
,,,,,,"OP03,1",Argpart,rep(,0
,,,,,,"OP03,2","Argument,1",,0
,,,,,,"OP03,3",Argpart,",nchar(",0
,,,,,,"OP03,4","Argument,2",,0
,,,,,,"OP03,5",Argpart,)),1
,,,,,,"OP08,1",Argpart,data.frame(,0
,,,,,,"OP08,2","Argument,1",,0
,,,,,,"OP08,3",Argpart,),1
,,,,,,"OP09,1",Argpart,paste(,0
,,,,,,"OP09,2","Argument,2",,0
,,,,,,"OP09,3",Argpart,$,0
,,,,,,"OP09,4","Argument,1",,0
,,,,,,"OP09,5",Argpart," , collapse=""",0
,,,,,,"OP09,6","Argument,3",,0
,,,,,,"OP09,7",Argpart,""")",1
,,,,,,"OP11,1",Argpart,substr(,0
,,,,,,"OP11,2","Argument,2",,0
,,,,,,"OP11,3",Argpart,$,0
,,,,,,"OP11,4","Argument,1",,0
,,,,,,"OP11,5",Argpart,", ",0
,,,,,,"OP11,6","Argument,3",,0
,,,,,,"OP11,7",Argpart,", ",0
,,,,,,"OP11,8","Argument,4",,0
,,,,,,"OP11,9",Argpart,),1
,,,,,,"OP10,1","Argument,3",,0
,,,,,,"OP10,2",Argpart,$,0
,,,,,,"OP10,3","Argument,2",,0
,,,,,,"OP10,4",Argpart, <,0
,,,,,,"OP10,5",Argpart,- ,0
,,,,,,"OP10,6","Argument,1",,1
,,,,,,"OP12,1",Argpart,cumsum(,0
,,,,,,"OP12,2","Argument,2",,0
,,,,,,"OP12,3",Argpart,$,0
,,,,,,"OP12,4","Argument,1",,0
,,,,,,"OP12,5",Argpart,),1
,,,,,,"OP13,1",Argpart,nchar(,0
,,,,,,"OP13,2","Argument,2",,0
,,,,,,"OP13,3",Argpart,$,0
,,,,,,"OP13,4","Argument,1",,0
,,,,,,"OP13,5",Argpart,),1
,,,,,,"OP14,1",Argpart,list.files(),1
,,,,,,"OP15,1",Argpart,print(',0
,,,,,,"OP15,2","Argument,1",,0
,,,,,,"OP15,3",Argpart,'),1
,,,,,,"OP16,1",Argpart,names(,0
,,,,,,"OP16,2","Argument,1",,0
,,,,,,"OP16,3",Argpart,),1
,,,,,,"OP17,1","Argument,1",,1
,,,,,,"OP18,1","Argument,1",,0
,,,,,,"OP18,2",Argpart,$,0
,,,,,,"OP18,3","Argument,2",,0
,,,,,,"OP18,4",Argpart,[is.na(,0
,,,,,,"OP18,5","Argument,1",,0
,,,,,,"OP18,6",Argpart,$,0
,,,,,,"OP18,7","Argument,2",,0
,,,,,,"OP18,8",Argpart,)] <,0
,,,,,,"OP18,9",Argpart,- ,0
,,,,,,"OP18,10","Argument,3",,1
,,,,,,"OP19,1",Argpart,ifelse(,0
,,,,,,"OP19,2","Argument,2",,0
,,,,,,"OP19,3",Argpart,$,0
,,,,,,"OP19,4","Argument,1",,0
,,,,,,"OP19,5",Argpart, ,0
,,,,,,"OP19,6","Argument,3",,0
,,,,,,"OP19,7",Argpart, ,0
,,,,,,"OP19,8","Argument,4",,0
,,,,,,"OP19,9",Argpart," , ",0
,,,,,,"OP19,10","Argument,5",,0
,,,,,,"OP19,11",Argpart," , ",0
,,,,,,"OP19,12","Argument,6",,0
,,,,,,"OP19,13",Argpart,),1
,,,,,,"OP20,1",Argpart,subset(,0
,,,,,,"OP20,2","Argument,1",,0
,,,,,,"OP20,3",Argpart,", ",0
,,,,,,"OP20,4","Argument,2",,0
,,,,,,"OP20,5",Argpart, ,0
,,,,,,"OP20,6","Argument,3",,0
,,,,,,"OP20,7",Argpart, ,0
,,,,,,"OP20,8","Argument,4",,0
,,,,,,"OP20,9",Argpart,),1
,,,,,,"OP21,1",Argpart,merge(,0
,,,,,,"OP21,2","Argument,1",,0
,,,,,,"OP21,3",Argpart,", ",0
,,,,,,"OP21,4","Argument,2",,0
,,,,,,"OP21,5",Argpart,", by.x=""",0
,,,,,,"OP21,6","Argument,3",,0
,,,,,,"OP21,7",Argpart,""", by.y=""",0
,,,,,,"OP21,8","Argument,4",,0
,,,,,,"OP21,9",Argpart,""", all.x=TRUE)",1
,,,,,,"OP22,1",Argpart,subset(,0
,,,,,,"OP22,2","Argument,2",,0
,,,,,,"OP22,3",Argpart,", select=c(",0
,,,,,,"OP22,4","Argument,1",,0
,,,,,,"OP22,5",Argpart,)),1
,,,,,,"OP23,1","Argument,3",,0
,,,,,,"OP23,2",Argpart,[,0
,,,,,,"OP23,3","Argument,1",,0
,,,,,,"OP23,4",Argpart, : ,0
,,,,,,"OP23,5","Argument,2",,0
,,,,,,"OP23,6",Argpart,],1
,,,,,,"OP24,1","Argument,5",,0
,,,,,,"OP24,2",Argpart,[,0
,,,,,,"OP24,3","Argument,1",,0
,,,,,,"OP24,4",Argpart, : ,0
,,,,,,"OP24,5","Argument,2",,0
,,,,,,"OP24,6",Argpart," , ",0
,,,,,,"OP24,7","Argument,3",,0
,,,,,,"OP24,8",Argpart, : ,0
,,,,,,"OP24,9","Argument,4",,0
,,,,,,"OP24,10",Argpart,],1
,,,,,,"OP25,1","Argument,1",,0
,,,,,,"OP25,2",Argpart,[order(,0
,,,,,,"OP25,3","Argument,3",,0
,,,,,,"OP25,4",Argpart,$,0
,,,,,,"OP25,5","Argument,2",,0
,,,,,,"OP25,6",Argpart,"),]",1
