String,Name_DE,Shortname,Corrvalue,Argcount,Varcount,Position,Argument,Content,EndofLine
Read %s and encode with %s,Dateileser,OP01,0,4,2,"OP01,1",Argpart,"scan(""",0
Add result to Variable %s,Variablenzuweisung,OP02,-1,2,1,"OP01,2","Argument,1",,0
Repeat String %s as many times as the Vector %s length,Stringwiederholung,OP03,0,3,2,"OP01,3",Argpart,""",",0
Set Path %s as working directory,Verzeichnissetzer,OP04,0,2,1,"OP01,4",Argpart,"what=“raw“, encoding=“",0
Extract Columnartxout of Dataframete %s aus Dataframe %,Extraktion,OP05,0,1,2,"OP01,5","Argument,2",,0
Put Variable %s  with Variable %s together,Verkettung,OP06,0,3,2,"OP01,6",Argpart,""", sep= "","" )",1
Add Result in Column %s in Dataframe %s,Spaltenzuweisung,OP07,-1,3,2,"OP02,1","Argument,1",,0
Create Dataframe with Vector %s,Dataframebilder,OP08,0,2,1,"OP02,2",Argpart, <,0
Concatenate Column %s of Dataframe %s giving a String with %s as separator,Stringkettenbilder,OP09,0,4,3,"OP02,3",Argpart,- ,0
Add Vector %s as column %s to Dataframe %s,Spaltenzusatz2,OP10,0,3,3,"OP05,1","Argument,2",,0
Extract a String from Column %s in Dataframe %s starting with the %s th character up to %s th character,Substring,OP11,0,5,4,"OP05,2",Argpart,$,0
Calcuate the Cumulated Sum of Column %s in Dataframe %,Kumsum,OP12,0,3,2,"OP05,3","Argument,1",,1
Length of String in column %s in Dataframe %s,Längenermittler,OP13,0,3,2,"OP06,1",Argpart,c(,0
List Filenames,Dateinamenauflister,OP14,0,1,0,"OP06,2","Argument,1",,0
Show String %s,Stringausgabe,OP15,0,2,1,"OP06,3",Argpart,",",0
List Columnnames of Dataframe %s,Spaltennamenliste,OP16,0,2,1,"OP06,4","Argument,2",,0
Write content %s,Inhaltausgabe,OP17,0,0,1,"OP06,5",Argpart,),1
Replace Errors in Dataframe %s with %s,Fehlerersatz,OP18,0,4,2,"OP07,1","Argument,2",,0
If column %s in Dataframe %s %s %s then %s else %s,Wennfunktion,OP19,0,7,6,"OP07,2",Argpart,$,0
Rows of Dataframe %s here %s %s %ssn denen %s %s %s,Subsetfunc,OP20,0,5,4,"OP07,3","Argument,1",,0
Merge %s with %s based on %s und %s,Mergefunc,OP21,0,5,4,"OP07,4",Argpart, <,0
,,,,,,"OP07,5",Argpart,- ,0
,,,,,,"OP04,1",Argpart,setwd(,0
,,,,,,"OP04,2","Argument,1",,0
,,,,,,"OP04,3",Argpart,),1
,,,,,,"OP03,1",Argpart,rep(,0
,,,,,,"OP03,2","Argument,1",,0
,,,,,,"OP03,3",Argpart,",nchar(",0
,,,,,,"OP03,4","Argument,2",,0
,,,,,,"OP03,5",Argpart,)),1
,,,,,,"OP08,1",Argpart,data.frame(,0
,,,,,,"OP08,2","Argument,1",,0
,,,,,,"OP08,3",Argpart,),1
,,,,,,"OP09,1",Argpart,paste(,0
,,,,,,"OP09,2","Argument,2",,0
,,,,,,"OP09,3",Argpart,$,0
,,,,,,"OP09,4","Argument,1",,0
,,,,,,"OP09,5",Argpart," , collapse=""",0
,,,,,,"OP09,6","Argument,3",,0
,,,,,,"OP09,7",Argpart,""")",1
,,,,,,"OP11,1",Argpart,substr(,0
,,,,,,"OP11,2","Argument,2",,0
,,,,,,"OP11,3",Argpart,$,0
,,,,,,"OP11,4","Argument,1",,0
,,,,,,"OP11,5",Argpart,", ",0
,,,,,,"OP11,6","Argument,3",,0
,,,,,,"OP11,7",Argpart,", ",0
,,,,,,"OP11,8","Argument,4",,0
,,,,,,"OP11,9",Argpart,),1
,,,,,,"OP10,1","Argument,3",,0
,,,,,,"OP10,2",Argpart,$,0
,,,,,,"OP10,3","Argument,2",,0
,,,,,,"OP10,4",Argpart, <,0
,,,,,,"OP10,5",Argpart,- ,0
,,,,,,"OP10,6","Argument,1",,1
,,,,,,"OP12,1",Argpart,cumsum(,0
,,,,,,"OP12,2","Argument,2",,0
,,,,,,"OP12,3",Argpart,$,0
,,,,,,"OP12,4","Argument,1",,0
,,,,,,"OP12,5",Argpart,),1
,,,,,,"OP13,1",Argpart,nchar(,0
,,,,,,"OP13,2","Argument,2",,0
,,,,,,"OP13,3",Argpart,$,0
,,,,,,"OP13,4","Argument,1",,0
,,,,,,"OP13,5",Argpart,),1
,,,,,,"OP14,1",Argpart,list.files(),1
,,,,,,"OP15,1",Argpart,print(',0
,,,,,,"OP15,2","Argument,1",,0
,,,,,,"OP15,3",Argpart,'),1
,,,,,,"OP16,1",Argpart,names(,0
,,,,,,"OP16,2","Argument,1",,0
,,,,,,"OP16,3",Argpart,),1
,,,,,,"OP17,1","Argument,1",,1
,,,,,,"OP18,1","Argument,1",,0
,,,,,,"OP18,2",Argpart,[is.na(,0
,,,,,,"OP18,3","Argument,1",,0
,,,,,,"OP18,4",Argpart,)] <,0
,,,,,,"OP18,5",Argpart,- ,0
,,,,,,"OP18,6","Argument,2",,1
,,,,,,"OP19,1",Argpart,ifelse(,0
,,,,,,"OP19,2","Argument,2",,0
,,,,,,"OP19,3",Argpart,$,0
,,,,,,"OP19,4","Argument,1",,0
,,,,,,"OP19,5",Argpart, ,0
,,,,,,"OP19,6","Argument,3",,0
,,,,,,"OP19,7",Argpart, ,0
,,,,,,"OP19,8","Argument,4",,0
,,,,,,"OP19,9",Argpart," , ",0
,,,,,,"OP19,10","Argument,5",,0
,,,,,,"OP19,11",Argpart," , ",0
,,,,,,"OP19,12","Argument,6",,0
,,,,,,"OP19,13",Argpart,),1
,,,,,,"OP20,1",Argpart,subset(,0
,,,,,,"OP20,2","Argument,1",,0
,,,,,,"OP20,3",Argpart,", ",0
,,,,,,"OP20,4","Argument,2",,0
,,,,,,"OP20,5",Argpart, ,0
,,,,,,"OP20,6","Argument,3",,0
,,,,,,"OP20,7",Argpart, ,0
,,,,,,"OP20,8",Argument4,,0
,,,,,,"OP20,9",Argpart,),1
,,,,,,"OP21,1",Argpart,merge(,0
,,,,,,"OP21,2","Argument,1",,0
,,,,,,"OP21,3",Argpart,", ",0
,,,,,,"OP21,4","Argument,2",,0
,,,,,,"OP21,5",Argpart,", by.x=“",0
,,,,,,"OP21,6","Argument,3",,0
,,,,,,"OP21,7",Argpart,"“, by.y=“",0
,,,,,,"OP21,8","Argument,4",,0
,,,,,,"OP21,9",Argpart,"“, all.x=TRUE)",1
